{
  "average_rating": 7.3,
  "backdrop_path": "/4JNggqfyJWREqb0enzpUMbvIniV.jpg",
  "results": [
    {
      "adult": false,
      "backdrop_path": null,
      "id": 1065504,
      "title": "Elsa",
      "original_title": "Elsa",
      "overview": "A Deafblind fencer and author competes in all arenas just for the right to be seen.",
      "poster_path": "/dg5tXrH3ukq6at0N7XLfudJk6CJ.jpg",
      "media_type": "movie",
      "original_language": "en",
      "genre_ids": [
        99
      ],
      "popularity": 0.0863,
      "release_date": "2023-01-20",
      "video": false,
      "vote_average": 0,
      "vote_count": 0
    },
    {
      "adult": false,
      "backdrop_path": "/wSJHuSD7ojzoXifWjOAjxV7UpEL.jpg",
      "id": 354912,
      "title": "Coco",
      "original_title": "Coco",
      "overview": "Despite his family’s baffling generations-old ban on music, Miguel dreams of becoming an accomplished musician like his idol, Ernesto de la Cruz. Desperate to prove his talent, Miguel finds himself in the stunning and colorful Land of the Dead following a mysterious chain of events. Along the way, he meets charming trickster Hector, and together, they set off on an extraordinary journey to unlock the real story behind Miguel's family history.",
      "poster_path": "/6Ryitt95xrO8KXuqRGm1fUuNwqF.jpg",
      "media_type": "movie",
      "original_language": "en",
      "genre_ids": [
        10751,
        16,
        10402,
        12
      ],
      "popularity": 18.8207,
      "release_date": "2017-10-27",
      "video": false,
      "vote_average": 8.204,
      "vote_count": 20052
    },
    {
      "adult": false,
      "backdrop_path": "/4JNggqfyJWREqb0enzpUMbvIniV.jpg",
      "id": 508442,
      "title": "Soul",
      "original_title": "Soul",
      "overview": "Joe Gardner is a middle school teacher with a love for jazz music. After a successful audition at the Half Note Club, he suddenly gets into an accident that separates his soul from his body and is transported to the You Seminar, a center in which souls develop and gain passions before being transported to a newborn child. Joe must enlist help from the other souls-in-training, like 22, a soul who has spent eons in the You Seminar, in order to get back to Earth.",
      "poster_path": "/pEz5aROvfy5FBW1OTlrDO3VryWO.jpg",
      "media_type": "movie",
      "original_language": "en",
      "genre_ids": [
        16,
        10751,
        35,
        14
      ],
      "popularity": 9.7371,
      "release_date": "2020-12-25",
      "video": false,
      "vote_average": 8.107,
      "vote_count": 10829
    },
    {
      "adult": false,
      "backdrop_path": "/6KyJeOW7vTW0czdR0S6wzXAcfmw.jpg",
      "id": 90802,
      "name": "The Sandman",
      "original_name": "The Sandman",
      "overview": "After years of imprisonment, Morpheus — the King of Dreams — embarks on a journey across worlds to find what was stolen from him and restore his power.",
      "poster_path": "/dhbqyYjLfTNAHodDDjDELzwO6F4.jpg",
      "media_type": "tv",
      "original_language": "en",
      "genre_ids": [
        10765,
        18,
        10759
      ],
      "popularity": 106.8309,
      "first_air_date": "2022-08-05",
      "vote_average": 7.926,
      "vote_count": 2230,
      "origin_country": [
        "US"
      ]
    },
    {
      "adult": false,
      "backdrop_path": "/xABhldZaMb6wfCH5oigV333OYnb.jpg",
      "id": 749170,
      "title": "Heads of State",
      "original_title": "Heads of State",
      "overview": "The UK Prime Minister and US President have a public rivalry that risks their countries' alliance. But when they become targets of a powerful enemy, they're forced to rely on each other as they go on a wild, multinational run. Allied with Noel, a brilliant MI6 agent, they must find a way to thwart a conspiracy that threatens the free world.",
      "poster_path": "/lVgE5oLzf7ABmzyASEVcjYyHI41.jpg",
      "media_type": "movie",
      "original_language": "en",
      "genre_ids": [
        28,
        53,
        35
      ],
      "popularity": 368.8216,
      "release_date": "2025-07-02",
      "video": false,
      "vote_average": 7.008,
      "vote_count": 391
    },
    {
      "adult": false,
      "backdrop_path": "/uIpJPDNFoeX0TVml9smPrs9KUVx.jpg",
      "id": 574475,
      "title": "Final Destination Bloodlines",
      "original_title": "Final Destination Bloodlines",
      "overview": "Plagued by a violent recurring nightmare, college student Stefanie heads home to track down the one person who might be able to break the cycle and save her family from the grisly demise that inevitably awaits them all.",
      "poster_path": "/6WxhEvFsauuACfv8HyoVX6mZKFj.jpg",
      "media_type": "movie",
      "original_language": "en",
      "genre_ids": [
        27,
        9648
      ],
      "popularity": 233.7381,
      "release_date": "2025-05-14",
      "video": false,
      "vote_average": 7.192,
      "vote_count": 1589
    },
    {
      "adult": false,
      "backdrop_path": "/6WqqEjiycNvDLjbEClM1zCwIbDD.jpg",
      "id": 1100988,
      "title": "28 Years Later",
      "original_title": "28 Years Later",
      "overview": "Twenty-eight years since the rage virus escaped a biological weapons laboratory, now, still in a ruthlessly enforced quarantine, some have found ways to exist amidst the infected. One such group lives on a small island connected to the mainland by a single, heavily-defended causeway. When one member departs on a mission into the dark heart of the mainland, he discovers secrets, wonders, and horrors that have mutated not only the infected but other survivors as well.",
      "poster_path": "/8UdOukfuqbsCgvQGB8L2TaXeLFW.jpg",
      "media_type": "movie",
      "original_language": "en",
      "genre_ids": [
        27,
        53,
        878
      ],
      "popularity": 87.0722,
      "release_date": "2025-06-18",
      "video": false,
      "vote_average": 7.2,
      "vote_count": 565
    },
    {
      "adult": false,
      "backdrop_path": "/7Zx3wDG5bBtcfk8lcnCWDOLM4Y4.jpg",
      "id": 552524,
      "title": "Lilo & Stitch",
      "original_title": "Lilo & Stitch",
      "overview": "The wildly funny and touching story of a lonely Hawaiian girl and the fugitive alien who helps to mend her broken family.",
      "poster_path": "/tUae3mefrDVTgm5mRzqWnZK6fOP.jpg",
      "media_type": "movie",
      "original_language": "en",
      "genre_ids": [
        10751,
        878,
        35,
        12
      ],
      "popularity": 214.1475,
      "release_date": "2025-05-17",
      "video": false,
      "vote_average": 7.151,
      "vote_count": 823
    },
    {
      "adult": false,
      "backdrop_path": "/U0A4zWh6XbJt1jDAPuGqKcu4ga.jpg",
      "id": 1151031,
      "title": "Bring Her Back",
      "original_title": "Bring Her Back",
      "overview": "Following the death of their father, a brother and sister are introduced to their new sibling by their foster mother, only to learn that she has a terrifying secret.",
      "poster_path": "/tObSf1VzzHt9xB0csanFtb3DRjf.jpg",
      "media_type": "movie",
      "original_language": "en",
      "genre_ids": [
        27
      ],
      "popularity": 171.5964,
      "release_date": "2025-05-28",
      "video": false,
      "vote_average": 7.372,
      "vote_count": 231
    },
    {
      "adult": false,
      "backdrop_path": "/lkDYN0whyE82mcM20rwtwjbniKF.jpg",
      "id": 911430,
      "title": "F1",
      "original_title": "F1",
      "overview": "Racing legend Sonny Hayes is coaxed out of retirement to lead a struggling Formula 1 team—and mentor a young hotshot driver—while chasing one more chance at glory.",
      "poster_path": "/vqBmyAj0Xm9LnS1xe1MSlMAJyHq.jpg",
      "media_type": "movie",
      "original_language": "en",
      "genre_ids": [
        28,
        18
      ],
      "popularity": 170.5713,
      "release_date": "2025-06-25",
      "video": false,
      "vote_average": 7.7,
      "vote_count": 711
    },
    {
      "adult": false,
      "backdrop_path": "/l3ycQYwWmbz7p8otwbomFDXIEhn.jpg",
      "id": 803796,
      "title": "KPop Demon Hunters",
      "original_title": "KPop Demon Hunters",
      "overview": "When K-pop superstars Rumi, Mira and Zoey aren't selling out stadiums, they're using their secret powers to protect their fans from supernatural threats.",
      "poster_path": "/43c1efKzA1kigNzY0HBzeoXp8LR.jpg",
      "media_type": "movie",
      "original_language": "en",
      "genre_ids": [
        16,
        14,
        28,
        35,
        10402,
        10751
      ],
      "popularity": 209.9491,
      "release_date": "2025-06-20",
      "video": false,
      "vote_average": 8.621,
      "vote_count": 554
    },
    {
      "adult": false,
      "backdrop_path": "/fPWJn5pqBr8n4h0YxW3QuasdvoI.jpg",
      "id": 1127110,
      "title": "Diablo",
      "original_title": "Diablo",
      "overview": "Ex-con Kris Chaney seizes the daughter of a Colombian gangster to fulfill a noble promise to the young girl's mother. When her father enlists both the criminal underworld and a psychotic killer to exact his revenge, Kris relies on everything he's ever learned to stay alive and keep his word.",
      "poster_path": "/uFQduVyYIinJy3eLjozgfl6Xtcn.jpg",
      "media_type": "movie",
      "original_language": "en",
      "genre_ids": [
        28,
        53
      ],
      "popularity": 83.5374,
      "release_date": "2025-06-13",
      "video": false,
      "vote_average": 7.33,
      "vote_count": 88
    },
    {
      "adult": false,
      "backdrop_path": "/jgrImRKhsRXaa6wlSsQPnFRUQbH.jpg",
      "id": 1412113,
      "title": "Squid Game: Making Season 2",
      "original_title": "오징어 게임: 시즌2 제작 이야기",
      "overview": "From set designs to character arcs, get exclusive cast and director interviews on how Season 2 of the globally most-watched series was brought to life.",
      "poster_path": "/yQGaui0bQ5Ai3KIFBB45nTeIqad.jpg",
      "media_type": "movie",
      "original_language": "ko",
      "genre_ids": [
        99
      ],
      "popularity": 63.101,
      "release_date": "2025-01-02",
      "video": false,
      "vote_average": 8.499,
      "vote_count": 419
    },
    {
      "adult": false,
      "backdrop_path": "/6van4BavoNXaZhCPdzLHNQ4Uc8H.jpg",
      "id": 1087891,
      "title": "The Amateur",
      "original_title": "The Amateur",
      "overview": "After his life is turned upside down when his wife is killed in a London terrorist attack, a brilliant but introverted CIA decoder takes matters into his own hands when his supervisors refuse to take action.",
      "poster_path": "/SNEoUInCa5fAgwuEBMIMBGvkkh.jpg",
      "media_type": "movie",
      "original_language": "en",
      "genre_ids": [
        53,
        28
      ],
      "popularity": 87.7886,
      "release_date": "2025-04-09",
      "video": false,
      "vote_average": 7.012,
      "vote_count": 764
    },
    {
      "adult": false,
      "backdrop_path": "/x58Gk2ZGU5AEBp25MQe2nhZhd5z.jpg",
      "id": 846422,
      "title": "The Old Guard 2",
      "original_title": "The Old Guard 2",
      "overview": "Andy and her team of immortal warriors fight with renewed purpose as they face a powerful new foe threatening their mission to protect humanity.",
      "poster_path": "/wqfu3bPLJaEWJVk3QOm0rKhxf1A.jpg",
      "media_type": "movie",
      "original_language": "en",
      "genre_ids": [
        28,
        14
      ],
      "popularity": 415.2933,
      "release_date": "2025-07-01",
      "video": false,
      "vote_average": 6.094,
      "vote_count": 425
    },
    {
      "adult": false,
      "backdrop_path": "/cJvUJEEQ86LSjl4gFLkYpdCJC96.jpg",
      "id": 1241436,
      "title": "Warfare",
      "original_title": "Warfare",
      "overview": "A platoon of Navy SEALs embarks on a dangerous mission in Ramadi, Iraq, with the chaos and brotherhood of war retold through their memories of the event.",
      "poster_path": "/srj9rYrjefyWqkLc6l2xjTGeBGO.jpg",
      "media_type": "movie",
      "original_language": "en",
      "genre_ids": [
        10752,
        28
      ],
      "popularity": 47.9213,
      "release_date": "2025-04-09",
      "video": false,
      "vote_average": 7.157,
      "vote_count": 741
    },
    {
      "adult": false,
      "backdrop_path": "/8SaEH4kYCy7JlviyhKtSVsMkt4r.jpg",
      "id": 1315988,
      "title": "Mikaela",
      "original_title": "Mikaela",
      "overview": "During the eve of the 6th of January, a record-breaking snowstorm sweeps across Spain. In the midst of its chaos, a group of robbers seizes the opportunity to hijack an armoured van. A few meters away is Leo, a finished policeman who has nothing to lose. With the unexpected aid of a young woman, he will try to stop the band from running away with their loot.",
      "poster_path": "/xG8olkWOmoW78GbozKbS2UxYGEo.jpg",
      "media_type": "movie",
      "original_language": "es",
      "genre_ids": [
        28,
        53
      ],
      "popularity": 40.6869,
      "release_date": "2025-01-31",
      "video": false,
      "vote_average": 6.25,
      "vote_count": 58
    },
    {
      "adult": false,
      "backdrop_path": "/nAxGnGHOsfzufThz20zgmRwKur3.jpg",
      "id": 1233413,
      "title": "Sinners",
      "original_title": "Sinners",
      "overview": "Trying to leave their troubled lives behind, twin brothers return to their hometown to start again, only to discover that an even greater evil is waiting to welcome them back.",
      "poster_path": "/4CkZl1LK6a5rXBqJB2ZP77h3N5i.jpg",
      "media_type": "movie",
      "original_language": "en",
      "genre_ids": [
        27,
        28,
        53
      ],
      "popularity": 122.6399,
      "release_date": "2025-04-16",
      "video": false,
      "vote_average": 7.563,
      "vote_count": 1967
    },
    {
      "adult": false,
      "backdrop_path": "/sItIskd5xpiE64bBWYwZintkGf3.jpg",
      "id": 541671,
      "title": "Ballerina",
      "original_title": "Ballerina",
      "overview": "Taking place during the events of John Wick: Chapter 3 – Parabellum, Eve Macarro begins her training in the assassin traditions of the Ruska Roma.",
      "poster_path": "/2VUmvqsHb6cEtdfscEA6fqqVzLg.jpg",
      "media_type": "movie",
      "original_language": "en",
      "genre_ids": [
        28,
        53,
        80
      ],
      "popularity": 456.3058,
      "release_date": "2025-06-04",
      "video": false,
      "vote_average": 7.441,
      "vote_count": 914
    },
    {
      "adult": false,
      "backdrop_path": "/peAzdLKtT6VDWIfPQO9LJD1NCG4.jpg",
      "id": 1234821,
      "title": "Jurassic World Rebirth",
      "original_title": "Jurassic World Rebirth",
      "overview": "Five years after the events of Jurassic World Dominion, covert operations expert Zora Bennett is contracted to lead a skilled team on a top-secret mission to secure genetic material from the world's three most massive dinosaurs. When Zora's operation intersects with a civilian family whose boating expedition was capsized, they all find themselves stranded on an island where they come face-to-face with a sinister, shocking discovery that's been hidden from the world for decades.",
      "poster_path": "/q0fGCmjLu42MPlSO9OYWpI5w86I.jpg",
      "media_type": "movie",
      "original_language": "en",
      "genre_ids": [
        878,
        12,
        28
      ],
      "popularity": 336.7278,
      "release_date": "2025-07-01",
      "video": false,
      "vote_average": 6.434,
      "vote_count": 534
    }
  ],
  "comments": {
    "movie:1065504": null,
    "movie:354912": null,
    "movie:508442": null,
    "tv:90802": null,
    "movie:749170": null,
    "movie:574475": null,
    "movie:1100988": null,
    "movie:552524": null,
    "movie:1151031": null,
    "movie:911430": null,
    "movie:803796": null,
    "movie:1127110": null,
    "movie:1412113": null,
    "movie:1087891": null,
    "movie:846422": null,
    "movie:1241436": null,
    "movie:1315988": null,
    "movie:1233413": null,
    "movie:541671": null,
    "movie:1234821": null
  },
  "created_by": {
    "avatar_path": "/u8tdNndu.png",
    "gravatar_hash": "adbd55564",
    "id": "774cc2344fbsd233123ds36",
    "name": "",
    "username": "Elsa"
  },
  "description": "This is a new list to test v4 lists",
  "id": 85223355,
  "iso_3166_1": "US",
  "iso_639_1": "en",
  "item_count": 29,
  "name": "Elsolist",
  "object_ids": {},
  "page": 1,
  "poster_path": null,
  "public": false,
  "revenue": 5401432566,
  "runtime": 2875,
  "sort_by": "original_order.asc",
  "total_pages": 2,
  "total_results": 29
}